what,kind,bundleId,bundleVersion,description,time
started,bundle,org.eclipse.datatools.enablement.sybase.ui,1.0.0.v200906090452,"org.eclipse.datatools.enablement.sybase.ui",1368864503439
started,bundle,org.eclipse.datatools.modelbase.derby,1.0.0.v201107221519,"org.eclipse.datatools.modelbase.derby",1368864506646
activated,view,org.eclipse.ui.navigator.resources,3.4.300.v20110928-1505,"org.eclipse.ui.navigator.ProjectExplorer",1368864550442
deactivated,workbench,org.eclipse.ui.workbench,3.7.1.v20120104-1859,"",1368864553026
started,bundle,org.eclipse.datatools.enablement.jdt.classpath,1.0.1.v201107221501,"org.eclipse.datatools.enablement.jdt.classpath",1368864565731
started,bundle,org.eclipse.ltk.ui.refactoring,3.6.0.v20110928-1453,"org.eclipse.ltk.ui.refactoring",1368864670386
activated,workbench,org.eclipse.ui.workbench,3.7.1.v20120104-1859,"",1368864694017
executed,command,org.eclipse.ui,3.7.0.v20110928-1505,"org.eclipse.ui.file.properties",1368864694044
started,bundle,org.eclipse.debug.ui,3.7.102.v20111129-1423_r372,"org.eclipse.debug.ui",1368864744641
started,bundle,org.eclipse.wst.xml.ui,1.1.202.v201112071516,"org.eclipse.wst.xml.ui",1368864744755
started,bundle,org.eclipse.wst.dtd.ui,1.0.600.v201103171359,"org.eclipse.wst.dtd.ui",1368864745514
started,bundle,org.eclipse.wst.xsl.ui,1.1.200.v201103082057,"org.eclipse.wst.xsl.ui",1368864745732
opened,editor,org.eclipse.jpt.jpa.ui,3.0.2.v201201243020,"org.eclipse.jpt.jpa.ui.internal.editors.PersistenceEditor",1368864745831
activated,editor,org.eclipse.jpt.jpa.ui,3.0.2.v201201243020,"org.eclipse.jpt.jpa.ui.internal.editors.PersistenceEditor",1368864746089
started,bundle,org.eclipse.core.variables,3.2.500.v20110928-1503,"org.eclipse.core.variables",1368864747090
deactivated,workbench,org.eclipse.ui.workbench,3.7.1.v20120104-1859,"",1368864788701
activated,workbench,org.eclipse.ui.workbench,3.7.1.v20120104-1859,"",1368864802279
deactivated,workbench,org.eclipse.ui.workbench,3.7.1.v20120104-1859,"",1368864804910
activated,workbench,org.eclipse.ui.workbench,3.7.1.v20120104-1859,"",1368864808188
deactivated,workbench,org.eclipse.ui.workbench,3.7.1.v20120104-1859,"",1368864809836
activated,workbench,org.eclipse.ui.workbench,3.7.1.v20120104-1859,"",1368864843907
started,bundle,org.eclipse.jdt.debug,3.7.1.v20111006_r372,"org.eclipse.jdt.debug",1368864880600
started,bundle,org.eclipse.jdt.debug.ui,3.6.1.v20111006_r372,"org.eclipse.jdt.debug.ui",1368864880802
executed,command,org.eclipse.ui,3.7.0.v20110928-1505,"org.eclipse.ui.file.saveAll",1368864881567
activated,view,org.eclipse.ui.navigator.resources,3.4.300.v20110928-1505,"org.eclipse.ui.navigator.ProjectExplorer",1368865026613
closed,editor,org.eclipse.jpt.jpa.ui,3.0.2.v201201243020,"org.eclipse.jpt.jpa.ui.internal.editors.PersistenceEditor",1368865026614
deactivated,workbench,org.eclipse.ui.workbench,3.7.1.v20120104-1859,"",1368865076320
activated,workbench,org.eclipse.ui.workbench,3.7.1.v20120104-1859,"",1368865098157
deactivated,workbench,org.eclipse.ui.workbench,3.7.1.v20120104-1859,"",1368865111685
activated,workbench,org.eclipse.ui.workbench,3.7.1.v20120104-1859,"",1368865570263
executed,command,org.eclipse.ui,3.7.0.v20110928-1505,"org.eclipse.ui.newWizard",1368865570269
deactivated,workbench,org.eclipse.ui.workbench,3.7.1.v20120104-1859,"",1368865698650
activated,workbench,org.eclipse.ui.workbench,3.7.1.v20120104-1859,"",1368865724392
deactivated,workbench,org.eclipse.ui.workbench,3.7.1.v20120104-1859,"",1368865750879
started,bundle,org.eclipse.wst.jsdt.manipulation,1.0.300.v201104272153,"org.eclipse.wst.jsdt.manipulation",1368865752846
started,bundle,org.eclipse.wst.jsdt.ui,1.1.102.v201201131900,"org.eclipse.wst.jsdt.ui",1368865752978
activated,workbench,org.eclipse.ui.workbench,3.7.1.v20120104-1859,"",1368865753254
executed,command,org.eclipse.ui,3.7.0.v20110928-1505,"org.eclipse.ui.edit.delete",1368865753287
activated,view,org.eclipse.datatools.connectivity.ui.dse,1.1.4.v201107221459,"org.eclipse.datatools.connectivity.DataSourceExplorerNavigator",1368865759094
deactivated,workbench,org.eclipse.ui.workbench,3.7.1.v20120104-1859,"",1368865760763
activated,workbench,org.eclipse.ui.workbench,3.7.1.v20120104-1859,"",1368865764771
deactivated,workbench,org.eclipse.ui.workbench,3.7.1.v20120104-1859,"",1368865773256
activated,workbench,org.eclipse.ui.workbench,3.7.1.v20120104-1859,"",1368865775786
activated,view,org.eclipse.ui.ide,3.7.0.v20110928-1505,"org.eclipse.ui.views.ProblemView",1368865775813
activated,view,org.eclipse.ui.navigator.resources,3.4.300.v20110928-1505,"org.eclipse.ui.navigator.ProjectExplorer",1368865809491
deactivated,workbench,org.eclipse.ui.workbench,3.7.1.v20120104-1859,"",1368865917841
activated,workbench,org.eclipse.ui.workbench,3.7.1.v20120104-1859,"",1368865928939
deactivated,workbench,org.eclipse.ui.workbench,3.7.1.v20120104-1859,"",1368865940952
activated,workbench,org.eclipse.ui.workbench,3.7.1.v20120104-1859,"",1368866003450
deactivated,workbench,org.eclipse.ui.workbench,3.7.1.v20120104-1859,"",1368866005156
activated,workbench,org.eclipse.ui.workbench,3.7.1.v20120104-1859,"",1368866084162
deactivated,workbench,org.eclipse.ui.workbench,3.7.1.v20120104-1859,"",1368866185878
activated,workbench,org.eclipse.ui.workbench,3.7.1.v20120104-1859,"",1368866188758
deactivated,workbench,org.eclipse.ui.workbench,3.7.1.v20120104-1859,"",1368866192417
activated,workbench,org.eclipse.ui.workbench,3.7.1.v20120104-1859,"",1368866204019
deactivated,workbench,org.eclipse.ui.workbench,3.7.1.v20120104-1859,"",1368866208428
activated,workbench,org.eclipse.ui.workbench,3.7.1.v20120104-1859,"",1368866244633
deactivated,workbench,org.eclipse.ui.workbench,3.7.1.v20120104-1859,"",1368866248097
started,bundle,org.eclipse.mylyn.ide.ui,3.6.0.v20110608-1400,"org.eclipse.mylyn.ide.ui",1368866410179
activated,workbench,org.eclipse.ui.workbench,3.7.1.v20120104-1859,"",1368866411202
started,bundle,org.eclipse.mylyn.resources.ui,3.6.0.v20110608-1400,"org.eclipse.mylyn.resources.ui",1368866411451
opened,editor,org.eclipse.jdt.ui,3.7.2.v20120109-1427,"org.eclipse.jdt.ui.CompilationUnitEditor",1368866412370
activated,editor,org.eclipse.jdt.ui,3.7.2.v20120109-1427,"org.eclipse.jdt.ui.CompilationUnitEditor",1368866412753
activated,view,org.eclipse.ui.navigator.resources,3.4.300.v20110928-1505,"org.eclipse.ui.navigator.ProjectExplorer",1368866439216
activated,view,org.eclipse.jpt.jpa.ui,3.0.2.v201201243020,"org.eclipse.jpt.ui.jpaStructureView",1368866447690
activated,editor,org.eclipse.jdt.ui,3.7.2.v20120109-1427,"org.eclipse.jdt.ui.CompilationUnitEditor",1368866450734
started,bundle,org.eclipse.jdt.junit,3.7.0.v20110928-1453,"org.eclipse.jdt.junit",1368866465492
started,bundle,org.eclipse.pde.launching,3.6.0.v20110506,"org.eclipse.pde.launching",1368866465529
started,bundle,org.eclipse.ui.views.log,1.0.200.v20110404,"org.eclipse.ui.views.log",1368866465550
started,bundle,org.eclipse.pde.ui,3.6.100.v20120103_r372,"org.eclipse.pde.ui",1368866465553
activated,view,org.eclipse.ui.navigator.resources,3.4.300.v20110928-1505,"org.eclipse.ui.navigator.ProjectExplorer",1368866587465
deactivated,workbench,org.eclipse.ui.workbench,3.7.1.v20120104-1859,"",1368866591593
activated,workbench,org.eclipse.ui.workbench,3.7.1.v20120104-1859,"",1368866593509
deactivated,workbench,org.eclipse.ui.workbench,3.7.1.v20120104-1859,"",1368866602286
activated,workbench,org.eclipse.ui.workbench,3.7.1.v20120104-1859,"",1368866819828
opened,editor,org.eclipse.jdt.ui,3.7.2.v20120109-1427,"org.eclipse.jdt.ui.CompilationUnitEditor",1368866819946
activated,editor,org.eclipse.jdt.ui,3.7.2.v20120109-1427,"org.eclipse.jdt.ui.CompilationUnitEditor",1368866820031
activated,view,org.eclipse.ui.navigator.resources,3.4.300.v20110928-1505,"org.eclipse.ui.navigator.ProjectExplorer",1368866822668
deactivated,workbench,org.eclipse.ui.workbench,3.7.1.v20120104-1859,"",1368866841998
activated,workbench,org.eclipse.ui.workbench,3.7.1.v20120104-1859,"",1368866995792
deactivated,workbench,org.eclipse.ui.workbench,3.7.1.v20120104-1859,"",1368867018235
activated,workbench,org.eclipse.ui.workbench,3.7.1.v20120104-1859,"",1368867182765
deactivated,workbench,org.eclipse.ui.workbench,3.7.1.v20120104-1859,"",1368867185939
deactivated,workbench,org.eclipse.ui.workbench,3.7.1.v20120104-1859,"",1368867284436
activated,workbench,org.eclipse.ui.workbench,3.7.1.v20120104-1859,"",1368867388195
executed,command,org.eclipse.ui,3.7.0.v20110928-1505,"org.eclipse.ui.file.refresh",1368867393752
activated,editor,org.eclipse.jdt.ui,3.7.2.v20120109-1427,"org.eclipse.jdt.ui.CompilationUnitEditor",1368867409846
started,bundle,org.eclipse.jpt.jaxb.ui,1.1.2.v201201260000,"org.eclipse.jpt.jaxb.ui",1368867427030
started,bundle,org.eclipse.jst.ws.jaxws.ui,1.0.100.v201104032053,"org.eclipse.jst.ws.jaxws.ui",1368867427166
started,bundle,org.eclipse.mylyn.java.ui,3.6.0.v20110608-1400,"org.eclipse.mylyn.java.ui",1368867427181
started,bundle,org.eclipse.pde.api.tools,1.0.301.v20111129-2053,"org.eclipse.pde.api.tools",1368867427247
started,bundle,org.eclipse.pde.api.tools.ui,1.0.301.v20110803_r371,"org.eclipse.pde.api.tools.ui",1368867427249
started,bundle,org.eclipse.jpt.jaxb.core,1.0.2.v201111103010,"org.eclipse.jpt.jaxb.core",1368867427389
executed,command,org.eclipse.ui,3.7.0.v20110928-1505,"org.eclipse.ui.file.refresh",1368867444845
executed,command,org.eclipse.ui,3.7.0.v20110928-1505,"org.eclipse.ui.file.save",1368867450084
activated,view,org.eclipse.ui.navigator.resources,3.4.300.v20110928-1505,"org.eclipse.ui.navigator.ProjectExplorer",1368867460671
opened,editor,org.eclipse.jdt.ui,3.7.2.v20120109-1427,"org.eclipse.jdt.ui.CompilationUnitEditor",1368867460921
activated,editor,org.eclipse.jdt.ui,3.7.2.v20120109-1427,"org.eclipse.jdt.ui.CompilationUnitEditor",1368867460986
executed,command,,,"AUTOGEN:::org.eclipse.jdt.internal.ui.CompilationUnitEditor.ruler.actions/org.eclipse.jdt.internal.ui.javaeditor.JavaSelectRulerAction",1368867463653
executed,command,org.eclipse.ui,3.7.0.v20110928-1505,"org.eclipse.ui.edit.copy",1368867494879
started,bundle,org.eclipse.mylyn.java.tasks,3.6.0.v20110608-1400,"org.eclipse.mylyn.java.tasks",1368867509280
executed,command,org.eclipse.ui,3.7.0.v20110928-1505,"org.eclipse.ui.edit.paste",1368867509587
executed,command,,,"AUTOGEN:::org.eclipse.jdt.internal.ui.CompilationUnitEditor.ruler.actions/org.eclipse.jdt.internal.ui.javaeditor.JavaSelectRulerAction",1368867514999
executed,command,org.eclipse.ui,3.7.0.v20110928-1505,"org.eclipse.ui.file.save",1368867568413
activated,view,org.eclipse.ui.navigator.resources,3.4.300.v20110928-1505,"org.eclipse.ui.navigator.ProjectExplorer",1368867574300
opened,editor,org.eclipse.jdt.ui,3.7.2.v20120109-1427,"org.eclipse.jdt.ui.CompilationUnitEditor",1368867577486
activated,editor,org.eclipse.jdt.ui,3.7.2.v20120109-1427,"org.eclipse.jdt.ui.CompilationUnitEditor",1368867577549
executed,command,org.eclipse.ui,3.7.0.v20110928-1505,"org.eclipse.ui.edit.paste",1368867582970
executed,command,org.eclipse.ui,3.7.0.v20110928-1505,"org.eclipse.ui.file.save",1368867586241
activated,editor,org.eclipse.jdt.ui,3.7.2.v20120109-1427,"org.eclipse.jdt.ui.CompilationUnitEditor",1368867588100
closed,editor,org.eclipse.jdt.ui,3.7.2.v20120109-1427,"org.eclipse.jdt.ui.CompilationUnitEditor",1368867588100
activated,view,org.eclipse.ui.navigator.resources,3.4.300.v20110928-1505,"org.eclipse.ui.navigator.ProjectExplorer",1368867624686
deactivated,workbench,org.eclipse.ui.workbench,3.7.1.v20120104-1859,"",1368867628471
activated,workbench,org.eclipse.ui.workbench,3.7.1.v20120104-1859,"",1368867631293
deactivated,workbench,org.eclipse.ui.workbench,3.7.1.v20120104-1859,"",1368867637871
activated,workbench,org.eclipse.ui.workbench,3.7.1.v20120104-1859,"",1368867640130
deactivated,workbench,org.eclipse.ui.workbench,3.7.1.v20120104-1859,"",1368867644902
activated,workbench,org.eclipse.ui.workbench,3.7.1.v20120104-1859,"",1368867691016
opened,editor,org.eclipse.jdt.ui,3.7.2.v20120109-1427,"org.eclipse.jdt.ui.CompilationUnitEditor",1368867691114
activated,editor,org.eclipse.jdt.ui,3.7.2.v20120109-1427,"org.eclipse.jdt.ui.CompilationUnitEditor",1368867691211
deactivated,workbench,org.eclipse.ui.workbench,3.7.1.v20120104-1859,"",1368867704478
activated,workbench,org.eclipse.ui.workbench,3.7.1.v20120104-1859,"",1368867716370
deactivated,workbench,org.eclipse.ui.workbench,3.7.1.v20120104-1859,"",1368867719483
activated,workbench,org.eclipse.ui.workbench,3.7.1.v20120104-1859,"",1368867746780
deactivated,workbench,org.eclipse.ui.workbench,3.7.1.v20120104-1859,"",1368867746791
activated,workbench,org.eclipse.ui.workbench,3.7.1.v20120104-1859,"",1368867759536
executed,command,org.eclipse.ui,3.7.0.v20110928-1505,"org.eclipse.ui.file.refresh",1368867769795
activated,view,org.eclipse.ui.navigator.resources,3.4.300.v20110928-1505,"org.eclipse.ui.navigator.ProjectExplorer",1368867773902
deactivated,workbench,org.eclipse.ui.workbench,3.7.1.v20120104-1859,"",1368867779114
activated,workbench,org.eclipse.ui.workbench,3.7.1.v20120104-1859,"",1368868024080
executed,command,org.eclipse.ui,3.7.0.v20110928-1505,"org.eclipse.ui.file.refresh",1368868028054
activated,editor,org.eclipse.jdt.ui,3.7.2.v20120109-1427,"org.eclipse.jdt.ui.CompilationUnitEditor",1368868034609
deactivated,workbench,org.eclipse.ui.workbench,3.7.1.v20120104-1859,"",1368868061283
activated,workbench,org.eclipse.ui.workbench,3.7.1.v20120104-1859,"",1368868064591
deactivated,workbench,org.eclipse.ui.workbench,3.7.1.v20120104-1859,"",1368868116183
activated,workbench,org.eclipse.ui.workbench,3.7.1.v20120104-1859,"",1368868120076
deactivated,workbench,org.eclipse.ui.workbench,3.7.1.v20120104-1859,"",1368868122140
deactivated,workbench,org.eclipse.ui.workbench,3.7.1.v20120104-1859,"",1368868211561
activated,workbench,org.eclipse.ui.workbench,3.7.1.v20120104-1859,"",1368868211695
activated,view,org.eclipse.ui.navigator.resources,3.4.300.v20110928-1505,"org.eclipse.ui.navigator.ProjectExplorer",1368868214476
executed,command,org.eclipse.ui,3.7.0.v20110928-1505,"org.eclipse.ui.file.refresh",1368868216003
activated,editor,org.eclipse.jdt.ui,3.7.2.v20120109-1427,"org.eclipse.jdt.ui.CompilationUnitEditor",1368868238680
executed,command,,,"AUTOGEN:::org.eclipse.jdt.internal.ui.CompilationUnitEditor.ruler.actions/org.eclipse.jdt.internal.ui.javaeditor.JavaSelectRulerAction",1368868250354
activated,view,org.eclipse.ui.navigator.resources,3.4.300.v20110928-1505,"org.eclipse.ui.navigator.ProjectExplorer",1368868273768
activated,editor,org.eclipse.jdt.ui,3.7.2.v20120109-1427,"org.eclipse.jdt.ui.CompilationUnitEditor",1368868275307
activated,view,org.eclipse.ui.navigator.resources,3.4.300.v20110928-1505,"org.eclipse.ui.navigator.ProjectExplorer",1368868278526
opened,editor,org.eclipse.jdt.ui,3.7.2.v20120109-1427,"org.eclipse.jdt.ui.CompilationUnitEditor",1368868325760
activated,editor,org.eclipse.jdt.ui,3.7.2.v20120109-1427,"org.eclipse.jdt.ui.CompilationUnitEditor",1368868325857
deactivated,workbench,org.eclipse.ui.workbench,3.7.1.v20120104-1859,"",1368868372489
activated,workbench,org.eclipse.ui.workbench,3.7.1.v20120104-1859,"",1368868392068
activated,view,org.eclipse.ui.navigator.resources,3.4.300.v20110928-1505,"org.eclipse.ui.navigator.ProjectExplorer",1368868405887
activated,editor,org.eclipse.jdt.ui,3.7.2.v20120109-1427,"org.eclipse.jdt.ui.CompilationUnitEditor",1368868408222
activated,view,org.eclipse.ui.navigator.resources,3.4.300.v20110928-1505,"org.eclipse.ui.navigator.ProjectExplorer",1368868410532
activated,editor,org.eclipse.jdt.ui,3.7.2.v20120109-1427,"org.eclipse.jdt.ui.CompilationUnitEditor",1368868410561
activated,view,org.eclipse.ui.navigator.resources,3.4.300.v20110928-1505,"org.eclipse.ui.navigator.ProjectExplorer",1368868410577
opened,editor,org.eclipse.jdt.ui,3.7.2.v20120109-1427,"org.eclipse.jdt.ui.CompilationUnitEditor",1368868410638
activated,editor,org.eclipse.jdt.ui,3.7.2.v20120109-1427,"org.eclipse.jdt.ui.CompilationUnitEditor",1368868410744
activated,view,org.eclipse.ui.navigator.resources,3.4.300.v20110928-1505,"org.eclipse.ui.navigator.ProjectExplorer",1368868417108
activated,editor,org.eclipse.jdt.ui,3.7.2.v20120109-1427,"org.eclipse.jdt.ui.CompilationUnitEditor",1368868420736
executed,command,,,"AUTOGEN:::org.eclipse.jdt.internal.ui.CompilationUnitEditor.ruler.actions/org.eclipse.jdt.internal.ui.javaeditor.JavaSelectRulerAction",1368868430099
deactivated,workbench,org.eclipse.ui.workbench,3.7.1.v20120104-1859,"",1368868434502
activated,workbench,org.eclipse.ui.workbench,3.7.1.v20120104-1859,"",1368868436376
executed,command,org.eclipse.ui,3.7.0.v20110928-1505,"org.eclipse.ui.edit.undo",1368868444297
activated,view,org.eclipse.ui.navigator.resources,3.4.300.v20110928-1505,"org.eclipse.ui.navigator.ProjectExplorer",1368868452380
opened,editor,org.eclipse.jdt.ui,3.7.2.v20120109-1427,"org.eclipse.jdt.ui.CompilationUnitEditor",1368868452701
activated,editor,org.eclipse.jdt.ui,3.7.2.v20120109-1427,"org.eclipse.jdt.ui.CompilationUnitEditor",1368868452790
activated,view,org.eclipse.ui.navigator.resources,3.4.300.v20110928-1505,"org.eclipse.ui.navigator.ProjectExplorer",1368868475639
activated,editor,org.eclipse.jdt.ui,3.7.2.v20120109-1427,"org.eclipse.jdt.ui.CompilationUnitEditor",1368868479451
activated,view,org.eclipse.ui.navigator.resources,3.4.300.v20110928-1505,"org.eclipse.ui.navigator.ProjectExplorer",1368868556875
activated,editor,org.eclipse.jdt.ui,3.7.2.v20120109-1427,"org.eclipse.jdt.ui.CompilationUnitEditor",1368868562815
executed,command,,,"AUTOGEN:::org.eclipse.jdt.internal.ui.CompilationUnitEditor.ruler.actions/org.eclipse.jdt.internal.ui.javaeditor.JavaSelectRulerAction",1368868563398
deactivated,workbench,org.eclipse.ui.workbench,3.7.1.v20120104-1859,"",1368868569342
activated,workbench,org.eclipse.ui.workbench,3.7.1.v20120104-1859,"",1368868571607
executed,command,,,"AUTOGEN:::org.eclipse.jdt.internal.ui.CompilationUnitEditor.ruler.actions/org.eclipse.jdt.internal.ui.javaeditor.JavaSelectRulerAction",1368868575002
deactivated,workbench,org.eclipse.ui.workbench,3.7.1.v20120104-1859,"",1368868576795
activated,workbench,org.eclipse.ui.workbench,3.7.1.v20120104-1859,"",1368868579066
executed,command,org.eclipse.ui,3.7.0.v20110928-1505,"org.eclipse.ui.edit.undo",1368868594643
executed,command,org.eclipse.ui,3.7.0.v20110928-1505,"org.eclipse.ui.edit.undo",1368868595646
executed,command,org.eclipse.ui,3.7.0.v20110928-1505,"org.eclipse.ui.edit.undo",1368868597744
executed,command,org.eclipse.ui,3.7.0.v20110928-1505,"org.eclipse.ui.edit.undo",1368868598992
executed,command,org.eclipse.ui,3.7.0.v20110928-1505,"org.eclipse.ui.file.saveAll",1368868604794
activated,view,org.eclipse.ui.navigator.resources,3.4.300.v20110928-1505,"org.eclipse.ui.navigator.ProjectExplorer",1368868607067
opened,editor,org.eclipse.jdt.ui,3.7.2.v20120109-1427,"org.eclipse.jdt.ui.CompilationUnitEditor",1368868607321
activated,editor,org.eclipse.jdt.ui,3.7.2.v20120109-1427,"org.eclipse.jdt.ui.CompilationUnitEditor",1368868607380
activated,view,org.eclipse.ui.navigator.resources,3.4.300.v20110928-1505,"org.eclipse.ui.navigator.ProjectExplorer",1368868625245
activated,editor,org.eclipse.jdt.ui,3.7.2.v20120109-1427,"org.eclipse.jdt.ui.CompilationUnitEditor",1368868630538
activated,view,org.eclipse.ui.navigator.resources,3.4.300.v20110928-1505,"org.eclipse.ui.navigator.ProjectExplorer",1368868665454
activated,editor,org.eclipse.jdt.ui,3.7.2.v20120109-1427,"org.eclipse.jdt.ui.CompilationUnitEditor",1368868725483
executed,command,org.eclipse.ui,3.7.0.v20110928-1505,"org.eclipse.ui.edit.copy",1368868728610
executed,command,org.eclipse.ui,3.7.0.v20110928-1505,"org.eclipse.ui.edit.paste",1368868732831
executed,command,org.eclipse.ui,3.7.0.v20110928-1505,"org.eclipse.ui.edit.paste",1368868738657
executed,command,org.eclipse.ui,3.7.0.v20110928-1505,"org.eclipse.ui.edit.paste",1368868753760
executed,command,org.eclipse.ui,3.7.0.v20110928-1505,"org.eclipse.ui.edit.paste",1368868758601
executed,command,org.eclipse.ui,3.7.0.v20110928-1505,"org.eclipse.ui.file.saveAll",1368868772147
activated,view,org.eclipse.ui.navigator.resources,3.4.300.v20110928-1505,"org.eclipse.ui.navigator.ProjectExplorer",1368868776760
opened,editor,org.eclipse.jdt.ui,3.7.2.v20120109-1427,"org.eclipse.jdt.ui.CompilationUnitEditor",1368868787703
activated,editor,org.eclipse.jdt.ui,3.7.2.v20120109-1427,"org.eclipse.jdt.ui.CompilationUnitEditor",1368868787762
executed,command,org.eclipse.ui,3.7.0.v20110928-1505,"org.eclipse.ui.edit.paste",1368868794594
executed,command,org.eclipse.ui,3.7.0.v20110928-1505,"org.eclipse.ui.file.saveAll",1368868809561
executed,command,org.eclipse.ui,3.7.0.v20110928-1505,"org.eclipse.ui.edit.paste",1368868836105
executed,command,org.eclipse.ui,3.7.0.v20110928-1505,"org.eclipse.ui.edit.paste",1368868842411
executed,command,org.eclipse.ui,3.7.0.v20110928-1505,"org.eclipse.ui.edit.paste",1368868849008
executed,command,org.eclipse.ui,3.7.0.v20110928-1505,"org.eclipse.ui.edit.paste",1368868854131
executed,command,org.eclipse.ui,3.7.0.v20110928-1505,"org.eclipse.ui.edit.paste",1368868859167
executed,command,org.eclipse.ui,3.7.0.v20110928-1505,"org.eclipse.ui.file.saveAll",1368868867644
activated,view,org.eclipse.ui.navigator.resources,3.4.300.v20110928-1505,"org.eclipse.ui.navigator.ProjectExplorer",1368868869563
activated,editor,org.eclipse.jdt.ui,3.7.2.v20120109-1427,"org.eclipse.jdt.ui.CompilationUnitEditor",1368868876153
executed,command,,,"AUTOGEN:::org.eclipse.jdt.internal.ui.CompilationUnitEditor.ruler.actions/org.eclipse.jdt.internal.ui.javaeditor.JavaSelectRulerAction",1368868890940
deactivated,workbench,org.eclipse.ui.workbench,3.7.1.v20120104-1859,"",1368868893987
activated,workbench,org.eclipse.ui.workbench,3.7.1.v20120104-1859,"",1368868895733
executed,command,org.eclipse.ui,3.7.0.v20110928-1505,"org.eclipse.ui.edit.undo",1368868898944
executed,command,,,"AUTOGEN:::org.eclipse.jdt.internal.ui.CompilationUnitEditor.ruler.actions/org.eclipse.jdt.internal.ui.javaeditor.JavaSelectRulerAction",1368868901134
deactivated,workbench,org.eclipse.ui.workbench,3.7.1.v20120104-1859,"",1368868903073
activated,workbench,org.eclipse.ui.workbench,3.7.1.v20120104-1859,"",1368868903491
activated,view,org.eclipse.ui.navigator.resources,3.4.300.v20110928-1505,"org.eclipse.ui.navigator.ProjectExplorer",1368868908879
activated,editor,org.eclipse.jdt.ui,3.7.2.v20120109-1427,"org.eclipse.jdt.ui.CompilationUnitEditor",1368868910243
activated,view,org.eclipse.ui.navigator.resources,3.4.300.v20110928-1505,"org.eclipse.ui.navigator.ProjectExplorer",1368868917276
activated,editor,org.eclipse.jdt.ui,3.7.2.v20120109-1427,"org.eclipse.jdt.ui.CompilationUnitEditor",1368868917554
executed,command,org.eclipse.ui,3.7.0.v20110928-1505,"org.eclipse.ui.edit.undo",1368868920121
activated,view,org.eclipse.ui.navigator.resources,3.4.300.v20110928-1505,"org.eclipse.ui.navigator.ProjectExplorer",1368868921106
deactivated,workbench,org.eclipse.ui.workbench,3.7.1.v20120104-1859,"",1368868921286
activated,workbench,org.eclipse.ui.workbench,3.7.1.v20120104-1859,"",1368868923586
activated,editor,org.eclipse.jdt.ui,3.7.2.v20120109-1427,"org.eclipse.jdt.ui.CompilationUnitEditor",1368868925188
executed,command,,,"AUTOGEN:::org.eclipse.jdt.internal.ui.CompilationUnitEditor.ruler.actions/org.eclipse.jdt.internal.ui.javaeditor.JavaSelectRulerAction",1368868928071
activated,view,org.eclipse.ui.navigator.resources,3.4.300.v20110928-1505,"org.eclipse.ui.navigator.ProjectExplorer",1368868945200
activated,editor,org.eclipse.jdt.ui,3.7.2.v20120109-1427,"org.eclipse.jdt.ui.CompilationUnitEditor",1368868951453
activated,view,org.eclipse.ui.navigator.resources,3.4.300.v20110928-1505,"org.eclipse.ui.navigator.ProjectExplorer",1368868967931
activated,editor,org.eclipse.jdt.ui,3.7.2.v20120109-1427,"org.eclipse.jdt.ui.CompilationUnitEditor",1368869008490
executed,command,org.eclipse.ui,3.7.0.v20110928-1505,"org.eclipse.ui.file.saveAll",1368869018173
activated,view,org.eclipse.ui.navigator.resources,3.4.300.v20110928-1505,"org.eclipse.ui.navigator.ProjectExplorer",1368869020684
activated,view,org.eclipse.datatools.connectivity.ui.dse,1.1.4.v201107221459,"org.eclipse.datatools.connectivity.DataSourceExplorerNavigator",1368869042960
activated,editor,org.eclipse.jdt.ui,3.7.2.v20120109-1427,"org.eclipse.jdt.ui.CompilationUnitEditor",1368869058419
executed,command,org.eclipse.ui,3.7.0.v20110928-1505,"org.eclipse.ui.file.saveAll",1368869142851
activated,view,org.eclipse.ui.navigator.resources,3.4.300.v20110928-1505,"org.eclipse.ui.navigator.ProjectExplorer",1368869151451
activated,editor,org.eclipse.jdt.ui,3.7.2.v20120109-1427,"org.eclipse.jdt.ui.CompilationUnitEditor",1368869151758
activated,view,org.eclipse.ui.navigator.resources,3.4.300.v20110928-1505,"org.eclipse.ui.navigator.ProjectExplorer",1368869154233
activated,editor,org.eclipse.jdt.ui,3.7.2.v20120109-1427,"org.eclipse.jdt.ui.CompilationUnitEditor",1368869155928
executed,command,,,"AUTOGEN:::org.eclipse.jdt.internal.ui.CompilationUnitEditor.ruler.actions/org.eclipse.jdt.internal.ui.javaeditor.JavaSelectRulerAction",1368869158533
executed,command,,,"AUTOGEN:::org.eclipse.jdt.internal.ui.CompilationUnitEditor.ruler.actions/org.eclipse.jdt.internal.ui.javaeditor.JavaSelectRulerAction",1368869213856
deactivated,workbench,org.eclipse.ui.workbench,3.7.1.v20120104-1859,"",1368869218586
activated,workbench,org.eclipse.ui.workbench,3.7.1.v20120104-1859,"",1368869218791
opened,editor,org.eclipse.jdt.ui,3.7.2.v20120109-1427,"org.eclipse.jdt.ui.CompilationUnitEditor",1368869218840
activated,editor,org.eclipse.jdt.ui,3.7.2.v20120109-1427,"org.eclipse.jdt.ui.CompilationUnitEditor",1368869218904
executed,command,org.eclipse.ui,3.7.0.v20110928-1505,"org.eclipse.ui.file.saveAll",1368869227523
activated,view,org.eclipse.ui.navigator.resources,3.4.300.v20110928-1505,"org.eclipse.ui.navigator.ProjectExplorer",1368869231452
activated,editor,org.eclipse.jdt.ui,3.7.2.v20120109-1427,"org.eclipse.jdt.ui.CompilationUnitEditor",1368869235219
activated,view,org.eclipse.ui.navigator.resources,3.4.300.v20110928-1505,"org.eclipse.ui.navigator.ProjectExplorer",1368869237099
activated,editor,org.eclipse.jdt.ui,3.7.2.v20120109-1427,"org.eclipse.jdt.ui.CompilationUnitEditor",1368869261988
activated,view,org.eclipse.ui.navigator.resources,3.4.300.v20110928-1505,"org.eclipse.ui.navigator.ProjectExplorer",1368869283271
opened,editor,org.eclipse.jdt.ui,3.7.2.v20120109-1427,"org.eclipse.jdt.ui.CompilationUnitEditor",1368869286624
